# Created with Anim8or 0.98
# Object "object01":

mtllib WoodenClub.mtl

# Shape "WoodenClub":
g WoodenClub
# No. points 20:
v -10.442 -0.61412 0.08700
v -5.16911 -0.31936 0.08691
v 0.10385 -0.61409 -0.29870
v 5.69377 -0.99808 0.08571
v 10.4419 -0.82678 0.08478
v -10.442 0.04500 -0.57212
v -5.16911 0.33976 -0.57221
v 0.10385 0.04503 -0.95782
v 5.69377 -0.21689 -0.69555
v 10.4419 0.04520 -0.78731
v -10.442 0.70412 0.08700
v -5.16911 0.99887 0.08691
v 0.10385 0.70414 -0.29870
v 5.69377 0.56431 0.08571
v 10.4419 0.91718 0.08478
v -10.442 0.04500 0.74612
v -5.16911 0.33976 0.74602
v 0.10385 0.04503 0.36042
v 5.69377 -0.21689 0.86696
v 10.4419 0.04520 0.95687

# No. normals 66:
vn 0.03948 -0.70656 -0.70655
vn -0.09086 -0.70418 -0.70418
vn 0.00005 -0.70711 -0.70711
vn 0.02537 -0.70692 -0.70684
vn -0.03951 0.70656 -0.70655
vn -0.01219 0.70706 -0.70705
vn 0.06616 0.70556 -0.70556
vn -0.05262 0.70617 -0.70608
vn -0.03948 0.70656 0.70655
vn 0.09086 0.70418 0.70418
vn -0.03092 0.70677 0.70677
vn -0.05234 0.70619 0.70609
vn 0.03951 -0.70656 0.70655
vn 0.01219 -0.70706 0.70705
vn -0.09675 -0.70379 0.70379
vn 0.02564 -0.70692 0.70683
vn 1 0 0
vn -1 0 0
vn 0.03948 -0.70656 -0.70655
vn -1 0 0
vn 0.03951 -0.70656 0.70655
vn -0.02574 -0.70687 -0.70687
vn 0.02585 -0.70687 0.70687
vn -0.04545 -0.70638 -0.70638
vn -0.04235 -0.70647 0.70647
vn 0.01271 -0.70707 -0.70703
vn -0.03562 -0.70668 0.70663
vn 0.02537 -0.70692 -0.70684
vn 1 0 0
vn 0.02564 -0.70692 0.70683
vn 0.03948 -0.70656 -0.70655
vn -1 0 0
vn -0.03951 0.70656 -0.70655
vn -0.02574 -0.70687 -0.70687
vn -0.02585 0.70687 -0.70687
vn -0.04545 -0.70638 -0.70638
vn 0.02701 0.70685 -0.70685
vn 0.01271 -0.70707 -0.70703
vn 0.00678 0.70711 -0.70707
vn 0.02537 -0.70692 -0.70684
vn 1 0 0
vn -0.05262 0.70617 -0.70608
vn -0.03951 0.70656 -0.70655
vn -1 0 0
vn -0.03948 0.70656 0.70655
vn -0.02585 0.70687 -0.70687
vn 0.02574 0.70687 0.70687
vn 0.02701 0.70685 -0.70685
vn 0.03002 0.70679 0.70679
vn 0.00678 0.70711 -0.70707
vn -0.04164 0.70652 0.70647
vn -0.05262 0.70617 -0.70608
vn 1 0 0
vn -0.05234 0.70619 0.70609
vn -0.03948 0.70656 0.70655
vn -1 0 0
vn 0.03951 -0.70656 0.70655
vn 0.02574 0.70687 0.70687
vn 0.02585 -0.70687 0.70687
vn 0.03002 0.70679 0.70679
vn -0.04235 -0.70647 0.70647
vn -0.04164 0.70652 0.70647
vn -0.03562 -0.70668 0.70663
vn -0.05234 0.70619 0.70609
vn 1 0 0
vn 0.02564 -0.70692 0.70683

# No. texture coordinates 25:
vt 0 0
vt 0 0.25000
vt 0 0.50000
vt 0 0.75000
vt 0 1
vt 0.25000 0
vt 0.25000 0.25000
vt 0.25000 0.50000
vt 0.25000 0.75000
vt 0.25000 1
vt 0.50000 0
vt 0.50000 0.25000
vt 0.50000 0.50000
vt 0.50000 0.75000
vt 0.50000 1
vt 0.75000 0
vt 0.75000 0.25000
vt 0.75000 0.50000
vt 0.75000 0.75000
vt 0.75000 1
vt 1 0
vt 1 0.25000
vt 1 0.50000
vt 1 0.75000
vt 1 1

# No. faces 18:

usemtl ___default___

f 7/7/34 2/2/22 1/1/19 6/6/31
f 8/8/36 3/3/24 2/2/22 7/7/34
f 9/9/38 4/4/26 3/3/24 8/8/36
f 10/10/40 5/5/28 4/4/26 9/9/38
f 12/12/46 7/7/35 6/6/33 11/11/43
f 13/13/48 8/8/37 7/7/35 12/12/46
f 14/14/50 9/9/39 8/8/37 13/13/48
f 15/15/52 10/10/42 9/9/39 14/14/50
f 17/17/58 12/12/47 11/11/45 16/16/55
f 18/18/60 13/13/49 12/12/47 17/17/58
f 19/19/62 14/14/51 13/13/49 18/18/60
f 20/20/64 15/15/54 14/14/51 19/19/62
f 2/22/23 17/17/59 16/16/57 1/21/21
f 3/23/25 18/18/61 17/17/59 2/22/23
f 4/24/27 19/19/63 18/18/61 3/23/25
f 5/25/30 20/20/66 19/19/63 4/24/27
f 5/5/29 10/10/41 15/15/53 20/20/65
f 16/16/56 11/11/44 6/6/32 1/1/20

# End of Object "object01"
